Date,Views
2020-11-08,179
2020-11-15,372
2020-11-22,150
2020-11-29,191
2020-12-06,75
2020-12-13,121
2020-12-20,26
2020-12-27,27
2021-01-03,42
2021-01-10,45
2021-01-17,39
2021-01-24,34
2021-01-31,81
2021-02-07,82
2021-02-14,143
2021-02-21,113
2021-02-28,228
2021-03-07,201
2021-03-14,24
2021-03-21,20
2021-03-28,9
2021-04-04,101
2021-04-11,12
2021-04-18,3
2021-04-25,14
2021-05-02,22
2021-05-09,15
2021-05-16,43
2021-05-23,5
2021-05-30,18
2021-06-06,13
2021-06-13,9
2021-06-20,56
2021-06-27,60
2021-07-04,106
2021-07-11,111
2021-07-18,98
2021-07-25,108
2021-08-01,150
2021-08-08,874
2021-08-15,695
2021-08-22,389
2021-08-29,202
2021-09-05,244
2021-09-12,452
2021-09-19,216
2021-09-26,217
2021-10-03,142
2021-10-10,70
2021-10-17,108
2021-10-24,147
2021-10-31,104
2021-11-07,29
