                                                                                                                        
                                                                                                                        
                                                                                                                     .,.
                                                                                           .,,,ll..,,.              ,kll
                                                                                         .,ll. .llllkk,,,,. .,,.  .lKl,k
                                                                                        ,k,         .,,lllllKMMKl,lKk.ll
                                                                                       ,l.                 .,lKk.  ll,l.
                                                                                     .,,.                     ll  .kKKl 
                                                                                     ,l,...                   ,l. lMMk. 
                                                                                      .,,lkkl,,.              .kl.kMMl  
                                                                                     ...,lKklkkkl,.           lK,lMMK,  
                                                                                    ,KKKl.kl   .,kk.          .kkkMMl   
                                                                                .,..lkkKl lk,,.  ,kl.          lMMMK,   
                                                                              .,,,.    ll,l,,,,,,,lklllll.     lMMMl    
                                                                              lk.      lKk,          lMKKl    .kMMK,    
                                                                              .kk,..,l,,Kl         .,lkKk.   ,KMMMl     
                                                                               .,lkKMKl,kKl,,,l,   lKKKl.  .,kMMMMl     
                                                                                 ,kl,,,,,,lkl,,.   lMMl .,,kk,kMMk.     
                                                                                ,l.            .,lkKMMKkKKl,..kMMl      
                                                                                lk.    .,,,,,lkKMKkl,,,,lkl. lMMk.      
                                                                                .ll,,,lKk,,lKMMMk.       .kl.kMK,       
                                                                                     .kMKkKMMMKl.         lkkMMl        
                                                                                 .,lllkKKkkKKl.           lMMMK,        
                                                                               .lkl,.  .. ,l.            .kMMMl         
                                                                               lk.       ,KKl,.         .kMMMk.         
                                                                 .,,,,,,,,,.   ll      .,kKl,kk.      .,kMMKk,          
                                                        .ll,,,,,,ll,,,,,,lkllkkKk,ll,,,,,,.  .. .ll.  lMMMkkl           
                                                        lMk.              ,lll,lKMk.          .,lkKk,lKMMkll.           
                                                        lMKkkl.          ,k,    lMk.       .,lKMMKKMMKKMMkl,            
                             .,.                        lMllMMk.        ,Kk.  .lKMMklllllkkKMMMMMMMMMMMMMMl             
                          .lkKk.                        lk..,kMl       ,lkMl ,KMMMMMMMMMMMMMMMMMMMMMMMMMMK,             
                   .lkkl,..lkll,                        ll ,kkll,      lKKKk,lklKKKKkkkkkkkkkkkkkkkkKMMMk.              
                    .kk,,..kMKKKk,                      ll.kMl ,k,     .,kKkkKl llll               .kMMMl               
                    .kKKKllkl,,kK,                     .l,lk,.  ,k,      .,..,. lKk,               lMMMMl               
                   ,KKl,.     ,l.                   .lkk, ll     ,k,       .,,.;KMl              .lklkMMl               
                  .ll.       .,.                 .lkkkl.  lk,.    lKl.  ,kkKMMKKMMk,,,,,,,,,,,,,lKMklKMMKkk,            
                 ,l.       .,kl                .lKKl.     ll     ,kllkllkkKMMMMMMMMMMMMMMMMMMMMMMMMMMMMMMMK,            
                ,k,        .lKl              .,kKl.   .,lkKl     ll  .lk,.kMMKKMKkkkkkkkkkkkkkkkKMMMMKkKk,.             
                ll           .l,             ll,l,,lkkKKkl,.     lKk,   .kMMK,lk.               .kMMMK,ll               
                ll            ll             ,kl,,lKMKl.        .lkKl  .kMMMl,l.                 lMMkkkll.              
                ll           .l,              .,kKlkKl,,,,,,,,,,,,lk, .kMMMMKk,                  .kMKlklll              
                lk.  ..      ll                 lk..,,lkl,,lkkllkKMk,,kMMMMMMl                    lMMl,kll,             
                .ll,,,,,.   ,Kk,,,.             .ll,,,lkl,,lkkllKMMMMKKMMMMMk.                    .kMK,lkkKkkkkkk,      
                   .ll,,,,,,lkkl,,.                 .,,,.       lMMMMMMMMMMMKl,,,.              .,,kKKKKMMMMMMMMMl      
                                                                .lKMMMMMMMMMMMMMMKkkkkkkkkkkkkkkKMMMKKMMMMMMMMMMK,      
                                                                  .,,lkkKMMMMMMMMMMMMMMMMMMMMMMMMMMMMMMMMMMMKkl,.       
                                                                        .,,,lkkkkKMMMMMMMMMMMMMMMMMMKkkkkl,,.           
                                                                                 .,,,,,,,,,,,,,,,,,,.                   
                                                                                                                        
                                                                                                                        
