Odc:c;.                                                          ....           
ddlcc:;.                                                        .:od:           
do;....                     .ll,                                .okOl.          
oc;.                      'dXWWKx;.                             'dxxl.          
dl:,'.                  ,dXNKkxOXXO:......'''',,,,,,,,,,;;;::clloxxoc.          
oc:;cc;.             .:kXWW0c;:,dWWXx:,,,:okKXKXXK0OOkkkkkOOOO0Okxdoc.          
o:;;;::.           .:kNWMMM0ldx:dX0o:ck0OklcoOK00KXXK000kkkxxxxxxkxxl.          
l;,,,::;.        .l0NMMMMMMOldl;ld:ckNMMMMW0dclxKNNNNX0000KXK00KXKKOl.          
l:::,,;:;..    .l0WMMMMMMMMk::'.'lONMMMMMMMMWXkllxKXXK0KXNNXKKKXXXXXx.          
occ:'.'clc:'..l0WMMMMMMMMMMXx;.:OWMMWNK00KNWMMMNOlcoOO000KKKK0O000KKO;          
oc;,'..,::;,,oXMMMMMMMMMMMNkcckNMMNK00kkOkxxKWMMMWx;:lllolloooodddddxl.         
l:,'',,,,,...lNMMMMMMMMMMMNko0MMWNkONMXXNWXdlKMMMWdoKNNNNWNNWWWWWWWWNo          
c;,..,:c:,,..kMMMMMMMMMMMMMWNNMMXdoxxxxddddl:oKMMWddNWWWWWMMMWWWWWMMWo          
c,''..';:.  .OMMKkdddxkxdodkKNMMNOo;,clccol',dXMMWxd0OO00OKK0K0kk0WMWo          
c;,''..,:;. ,KMWOc;;;cl;,,;ckNMMWkl;lxdxxkd;;dKMMMkoOO0KKxkOOK0xdONMWx.         
::,',,,;cl;.;XMWOlcccll;,;:cxNMMWOc;okdxkxo;:xXMMMOoxkkkkxkkkOOolkNMWx.         
;;;:;,;;;:c';kXNOc,'';c,.'';xNMMM0l;oOOO0kl,;dOkx00odo;;cldkxxklckNMWx.         
,;;::,,,,,;'.;xKOl,..,c:,:ccOWMMNkc,:ollol:',lxOOK0dxl,;;:okodkl;xNMWd.         
llccc,,;'...;x0X0xolloxdlooo0NXXXOl.        'lONMMKdxxlllok0xodookXMWx.         
cc;,,;:c:.  cNMMWWWWWNXXKKXKKOdxOOd'        'lkNMMKoOWWWWWMMWWWWWWWMWd.         
,;;:,''',:;'lNMMMMMMMNK00KNXOxoddoc.        .ckKNMXdkMMMMMMMMMMMMMMMWx.         
;;;;','.....cKKKKXNNXK00OOKKkxxdooooolllcccccdO0XMNooXNXXNWMMMMMMMWWWd.         
:;;c:,;;.  .;ddxkO00OkkOOO0OkOXXKKXNWWNXXKKXKKKNWNO:;clllodkKNNWWNNWWd.         
;:;;:;:cccol,;lodxkOOOkkOOkxkXWWWWWWWMMWWWWWNNKKOoc;,;,,:c::dOkOOkOOOo'.........
,;:,';:;;oO0xoolcldxxdlllccdKNWWWWWWWWWWWWWWNXXOc:::,,,';;:cdxdoxxddol,.....    
c;,;::,':coOK0kkkkO0Okkxdoo0WWWWWWWMMMWWWWWNXKKd,',,,''',;,;cc;'',,'........    
dc;,;;,;cllllc;cdxk0KK0KKKNWMMMMMMMMMMMMMWKkxdlc:,,'..........  .. ..           
::cllc:;,''.':clxdloxdxOOONMMMMMMMMMMMMWN0xdoc'. .....   ..              ..     
,;:cc;,,....';,,;;'';lkKNMMMMMMMMMMMMMWKOx:...........',;;.       .  .          
,,,,'',;:,....';::lk0NMMMMMMMMMMMMMMMW0o:,.  ..';;,,;::'....  .. ...........    
;''';llllc;,,;lkOKWMMMMMMMMMMMMMMMMMNOc.    ..'.',,,'..  .','..         ...     
,.;oOOxdk00Ok0XWMMMMMMMMMMMMMMMMMMMW0:.   ..   ..''..     .'..                  
