                                                                                                                        
 _____     _         _         _____                                                                                    
|  __ \   | |       (_)       |  __ \                                                                                   
| |__) |__| |_ ___   _ _ __   | |  | | __ _ _ __   __ _  ___ _ __                                                                
|  ___/ _ \ __/ __| | | '_ \  | |  | |/ _` | '_ \ / _` |/ _ \ '__|                                                               
| |  |  __/ |_\__ \ | | | | | | |__| | (_| | | | | (_| |  __/ |                                                                  
|_|   \___|\__|___/ |_|_| |_| |_____/ \__,_|_| |_|\__, |\___|_|             .....;lll:.                                          
                                                   __/ |                  .;odddxkOOOd.                                          
                                                  |___/                   ckOOkkdoool,.                                          
                                                                         .ckkolldkl;.                                            
                                                                    ......,lc;;:odl;.                                            
                                                                  .,ldxxl;ldl:;;;;,..                                            
                                                                 ':oodxxkkkkxc,:lol:.                                            
                                                                .:ooool,:xkkxc':xkkkd:......                                     
                                                                .:ooooc.'dkkxc':dkxollodolc:.                                    
                                                                .:ooo:'.'dkkxc':dkl. .,:;;;,.                                    
                                                                 .....  ,dkkxc':dc.                                              
                                                                        ,xkkxc':o,                                               
                                                                        'oxxdl;co,                                               
                                                                        .looooooo:.                                              
                                                                   ...  .lollccccll:.                                            
                                                                  ,odl:',lo:.....':ll:.                                          
                                                                  ;dc;;col:.      .'cll:,,.                                      
                                                                  ..   ...          .,ldo:.                                      
                                                                                      ...                                        
                                                                                                                        
